<svg width="23" height="22" viewBox="0 0 23 22" fill="none" xmlns="http://www.w3.org/2000/svg">
<path d="M12 11H1.36362M12 21.6363V11V21.6363ZM12 11V0.363617V11ZM12 11H22.6363H12Z" stroke="white" stroke-width="2" stroke-linecap="round"/>
</svg>
