<svg width="20" height="20" viewBox="0 0 20 20" fill="none" xmlns="http://www.w3.org/2000/svg">
<path d="M2.41131 13.616L4.11717 10.4666V7.1875C4.11717 3.91355 6.78073 1.25 10.0547 1.25C13.3286 1.25 15.9922 3.91355 15.9922 7.1875V10.4666L17.6981 13.6159C17.7755 13.7587 17.8144 13.9192 17.8111 14.0816C17.8078 14.244 17.7624 14.4027 17.6793 14.5422C17.5962 14.6818 17.4782 14.7973 17.337 14.8776C17.1958 14.9578 17.0362 15 16.8738 15H13.4779C13.4874 15.1039 13.4921 15.2082 13.4922 15.3125C13.4922 16.2242 13.1301 17.0985 12.4854 17.7432C11.8407 18.3878 10.9664 18.75 10.0547 18.75C9.14303 18.75 8.26869 18.3878 7.62403 17.7432C6.97938 17.0985 6.61721 16.2242 6.61721 15.3125C6.61721 15.207 6.62225 15.103 6.63155 15H3.23565C3.07325 15 2.91364 14.9578 2.77246 14.8775C2.63128 14.7973 2.51337 14.6817 2.43027 14.5422C2.34718 14.4027 2.30176 14.2439 2.29846 14.0816C2.29515 13.9192 2.33408 13.7588 2.41143 13.616H2.41131ZM7.86718 15.3125C7.86693 15.6131 7.92865 15.9106 8.04848 16.1863C8.16831 16.462 8.34368 16.71 8.56364 16.9149C8.78361 17.1198 9.04345 17.2772 9.32694 17.3772C9.61043 17.4772 9.91149 17.5177 10.2113 17.4962C10.5112 17.4746 10.8034 17.3915 11.0697 17.2521C11.336 17.1126 11.5707 16.9197 11.7591 16.6855C11.9475 16.4512 12.0857 16.1807 12.1649 15.8907C12.2441 15.6007 12.2627 15.2975 12.2195 15H7.88991C7.87489 15.1035 7.86729 15.2079 7.86718 15.3125ZM16.3491 13.75L14.7422 10.7834V7.1875C14.7422 5.9443 14.2483 4.75201 13.3692 3.87294C12.4902 2.99386 11.2979 2.5 10.0547 2.5C8.81147 2.5 7.61919 2.99386 6.74011 3.87294C5.86103 4.75201 5.36717 5.9443 5.36717 7.1875V10.7834L3.7603 13.75H16.3491Z" fill="white" fill-opacity="0.8"/>
</svg>
