<svg width="15" height="22" viewBox="0 0 15 22" fill="none" xmlns="http://www.w3.org/2000/svg">
<path fill-rule="evenodd" clip-rule="evenodd" d="M3.1974 3.3156H5.39481V18.6489H3.1974C2.61461 18.6489 2.05569 18.4182 1.6436 18.0074C1.2315 17.5966 0.999992 17.0394 0.999992 16.4585V5.50608C0.999992 4.92513 1.2315 4.36797 1.6436 3.95718C2.05569 3.54638 2.61461 3.3156 3.1974 3.3156V3.3156ZM8.36351 1.13936L12.7583 2.78222C13.1773 2.93877 13.5383 3.21906 13.7931 3.58564C14.048 3.95222 14.1845 4.3876 14.1844 4.8336V17.1309C14.1845 17.5769 14.048 18.0123 13.7931 18.3789C13.5383 18.7455 13.1773 19.0258 12.7583 19.1823L8.36351 20.8252C8.03104 20.9494 7.67332 20.9915 7.32098 20.9478C6.96863 20.9041 6.63216 20.776 6.34035 20.5743C6.04855 20.3727 5.8101 20.1036 5.64543 19.79C5.48076 19.4764 5.39476 19.1277 5.39481 18.7738V3.19075C5.39476 2.83681 5.48076 2.48813 5.64543 2.17456C5.8101 1.86099 6.04855 1.59186 6.34035 1.39022C6.63216 1.18859 6.96863 1.06044 7.32098 1.01675C7.67332 0.97306 8.03104 1.01513 8.36351 1.13936V1.13936Z" stroke="white" stroke-linecap="round" stroke-linejoin="round"/>
<path d="M7.59222 12.0775C8.19902 12.0775 8.69092 11.5872 8.69092 10.9823C8.69092 10.3774 8.19902 9.88703 7.59222 9.88703C6.98542 9.88703 6.49352 10.3774 6.49352 10.9823C6.49352 11.5872 6.98542 12.0775 7.59222 12.0775Z" fill="white"/>
</svg>
